material AAexplosion1
{
	technique
	{
		pass
		{
			lighting off
			depth_write off
			scene_blend add

			texture_unit
			{
				anim_texture explosion1.png 4 0.25
			}
		}
	}
}

material SmallFireExplosion
{
	technique
	{
		pass
		{
			lighting off
			depth_write off
			scene_blend add

			texture_unit
			{
				anim_texture SmallFireExplosion.png 5 0.25
				tex_address_mode clamp
			}
		}
	}
}

material ItemSpark
{
	technique
	{
		pass
		{
			lighting off
			depth_write off
			scene_blend add

			texture_unit
			{
				anim_texture ItemSpark.png 5 0.5
			}
		}
	}
}


EnergyShot
{
	quota	10
	material	EnergyShot
	particle_width	10
	particle_height	10
	cull_each	false
	renderer	billboard
	sorted	false
	local_space	false
	iteration_interval	0
	nonvisible_update_timeout	0
	billboard_type	point
	billboard_origin	center
	billboard_rotation_type	texcoord
	common_up_vector	0 1 0
	point_rendering	false
	accurate_facing	false

	emitter Point
	{
		angle	0
		colour	0.183333 0.461111 1 1
		colour_range_start	0.183333 0.461111 1 1
		colour_range_end	0.183333 0.461111 1 1
		direction	0 0 0
		emission_rate	1
		position	0 0 0
		velocity	10
		velocity_min	10
		velocity_max	10
		time_to_live	0.25
		time_to_live_min	0.25
		time_to_live_max	0.25
		duration	1
		duration_min	1
		duration_max	1
		repeat_delay	2
		repeat_delay_min	2
		repeat_delay_max	2
	}

	affector Rotator
	{
		rotation_speed_range_start	10
		rotation_speed_range_end	10
		rotation_range_start	120
		rotation_range_end	0
	}
}
