particle_system Trail
{
	material Special1
	particle_width 25.0
	particle_height 25.0
	quota 90
	cull_each false
	sorted false
	local_space true
	iteration_interval	0.01
	nonvisible_update_timeout 0.0
	billboard_type point
	billboard_origin center
	billboard_rotation_type texcoord
	point_rendering false
	accurate_facing false

	emitter Point
	{
		position 0.0 0.0 0.0
		direction -0.998203337192535 0.0 -0.0599191226065159
		angle 0
		emission_rate 15
		velocity_min 20
		velocity_max 20.1
		time_to_live_min 1.25
		time_to_live_max 1.25
		duration_min 0
		duration_max 0
		repeat_delay_min 0
		repeat_delay_max 0
		colour_range_start 1 1 1 1
		colour_range_end 1 1 1 1
	}

	affector Scaler
	{
		rate -15
	}

	affector Rotator
	{
		rotation_speed_range_start 10
		rotation_speed_range_end 10
		rotation_range_start 0
		rotation_range_end 0
	}

	affector ColourInterpolator
	{
		time0 0
		colour0 0.333333 0 1 1
		time1 0.2
		colour1 0.333333 0.333333 1 1
		time2 0.4
		colour2 0.419608 0.419608 1 1
		time3 0.6
		colour3 0.6 0.654902 1 1
		time4 0.8
		colour4 0.333333 0.666667 1 1
		time5 1
		colour5 0.333333 0.666667 1 1
	}

	affector DirectionRandomiser
	{
		randomness 
		scope 0.5
		keep_velocity false
	}

	affector LinearForce
	{
		force_vector -5.0 0.0 0.0
		force_application add
	}
}


particle_system EnemyTrail
{
	quota	10
	material	Special1
	particle_width	10
	particle_height	8
	cull_each	false
	renderer	billboard
	sorted	false
	local_space true
	iteration_interval	0.01
	nonvisible_update_timeout	0
	billboard_type	point
	billboard_origin	center
	billboard_rotation_type	texcoord
	common_up_vector	0 1 0
	point_rendering	false
	accurate_facing	false

	emitter Point
	{
		angle	0
		colour	1 1 1 1
		colour_range_start	1 1 1 1
		colour_range_end	1 1 1 1
		direction	1 0 0
		emission_rate	10
		position	0 0 0
		velocity	5
		velocity_min	
		velocity_max	5
		time_to_live	0.5
		time_to_live_min	0.5
		time_to_live_max	0.5
		duration	0
		duration_min	0
		duration_max	0
		repeat_delay	0
		repeat_delay_min	0
		repeat_delay_max	0
	}

	affector Scaler
	{
		rate	-10
	}

	affector ColourInterpolator
	{
		colour0	1 0 0 0.99
		time0	0
		colour1	1 0.172222 0.00555556 1
		time1	0.2
		colour2	1 0.183333 0 1
		time2	0.4
		colour3	1 0.216667 0 1
		time3	0.6
		colour4	1 0.1 0 1
		time4	1
		colour5	0.333333 0.666667 1 1
		time5	1
	}

	affector LinearForce
	{
		force_vector	2 0 0
		force_application	add
	}
}

